Quartus/simulation/qsim/project.msim.vcd
$comment
	File created using the following command:
		vcd file project.msim.vcd -direction
$end
$date
	Wed Dec 11 19:36:37 2024
$end
$version
	ModelSim Version 2020.1
$end
$timescale
	1ps
$end

$scope module charactor_test_vlg_vec_tst $end
$var reg 1 ! clk $end
$var reg 1 " gameover $end
$var reg 1 # rst $end
$var reg 1 $ score $end
$var wire 1 % com [7] $end
$var wire 1 & com [6] $end
$var wire 1 ' com [5] $end
$var wire 1 ( com [4] $end
$var wire 1 ) com [3] $end
$var wire 1 * com [2] $end
$var wire 1 + com [1] $end
$var wire 1 , com [0] $end
$var wire 1 - e $end
$var wire 1 . lcd_data [7] $end
$var wire 1 / lcd_data [6] $end
$var wire 1 0 lcd_data [5] $end
$var wire 1 1 lcd_data [4] $end
$var wire 1 2 lcd_data [3] $end
$var wire 1 3 lcd_data [2] $end
$var wire 1 4 lcd_data [1] $end
$var wire 1 5 lcd_data [0] $end
$var wire 1 6 num_data [6] $end
$var wire 1 7 num_data [5] $end
$var wire 1 8 num_data [4] $end
$var wire 1 9 num_data [3] $end
$var wire 1 : num_data [2] $end
$var wire 1 ; num_data [1] $end
$var wire 1 < num_data [0] $end
$var wire 1 = piezo $end
$var wire 1 > rs $end
$var wire 1 ? rw $end

$scope module i1 $end
$var wire 1 @ gnd $end
$var wire 1 A vcc $end
$var wire 1 B unknown $end
$var tri1 1 C devclrn $end
$var tri1 1 D devpor $end
$var tri1 1 E devoe $end
$var wire 1 F gameover~input_o $end
$var wire 1 G ~QUARTUS_CREATED_GND~I_combout $end
$var wire 1 H clk~input_o $end
$var wire 1 I clk~inputCLKENA0_outclk $end
$var wire 1 J rst~input_o $end
$var wire 1 K inst1|state[2]~DUPLICATE_q $end
$var wire 1 L inst1|state[1]~DUPLICATE_q $end
$var wire 1 M inst1|state[1]~3_combout $end
$var wire 1 N inst1|num[2]~DUPLICATE_q $end
$var wire 1 O inst1|state[2]~1_combout $end
$var wire 1 P inst1|state[2]~2_combout $end
$var wire 1 Q inst1|Decoder0~0_combout $end
$var wire 1 R inst1|state[3]~4_combout $end
$var wire 1 S inst1|state[0]~0_combout $end
$var wire 1 T inst1|Mux0~0_combout $end
$var wire 1 U inst1|Mux0~1_combout $end
$var wire 1 V inst1|Mux0~2_combout $end
$var wire 1 W inst1|Mux0~3_combout $end
$var wire 1 X inst1|Mux0~4_combout $end
$var wire 1 Y inst1|Mux0~5_combout $end
$var wire 1 Z inst1|Mux0~6_combout $end
$var wire 1 [ inst1|Mux0~7_combout $end
$var wire 1 \ inst1|score[0][2]~q $end
$var wire 1 ] score~input_o $end
$var wire 1 ^ inst1|LessThan0~0_combout $end
$var wire 1 _ inst1|score~5_combout $end
$var wire 1 ` inst1|score~6_combout $end
$var wire 1 a inst1|score[2][0]~q $end
$var wire 1 b inst1|score~17_combout $end
$var wire 1 c inst1|score[2][1]~q $end
$var wire 1 d inst1|Add2~1_combout $end
$var wire 1 e inst1|score~25_combout $end
$var wire 1 f inst1|score[2][2]~q $end
$var wire 1 g inst1|Add2~0_combout $end
$var wire 1 h inst1|score~33_combout $end
$var wire 1 i inst1|score~34_combout $end
$var wire 1 j inst1|score[2][3]~q $end
$var wire 1 k inst1|LessThan2~0_combout $end
$var wire 1 l inst1|score~10_combout $end
$var wire 1 m inst1|score~11_combout $end
$var wire 1 n inst1|score[5][0]~q $end
$var wire 1 o inst1|score~39_combout $end
$var wire 1 p inst1|score[5][3]~q $end
$var wire 1 q inst1|score~20_combout $end
$var wire 1 r inst1|score[5][1]~q $end
$var wire 1 s inst1|score~28_combout $end
$var wire 1 t inst1|score[5][2]~q $end
$var wire 1 u inst1|LessThan5~0_combout $end
$var wire 1 v inst1|score~43_combout $end
$var wire 1 w inst1|score[7][3]~q $end
$var wire 1 x inst1|score~23_combout $end
$var wire 1 y inst1|score[7][1]~q $end
$var wire 1 z inst1|Add7~1_combout $end
$var wire 1 { inst1|score~31_combout $end
$var wire 1 | inst1|score[7][2]~q $end
$var wire 1 } inst1|Add7~0_combout $end
$var wire 1 ~ inst1|score~15_combout $end
$var wire 1 !! inst1|score[7][0]~q $end
$var wire 1 "! inst1|score~1_combout $end
$var wire 1 #! inst1|score~13_combout $end
$var wire 1 $! inst1|score~14_combout $end
$var wire 1 %! inst1|score[6][0]~q $end
$var wire 1 &! inst1|score~22_combout $end
$var wire 1 '! inst1|score[6][1]~q $end
$var wire 1 (! inst1|score~30_combout $end
$var wire 1 )! inst1|score[6][2]~q $end
$var wire 1 *! inst1|score~41_combout $end
$var wire 1 +! inst1|score~42_combout $end
$var wire 1 ,! inst1|score[6][3]~q $end
$var wire 1 -! inst1|LessThan6~0_combout $end
$var wire 1 .! inst1|score~2_combout $end
$var wire 1 /! inst1|score~9_combout $end
$var wire 1 0! inst1|score[0][0]~q $end
$var wire 1 1! inst1|score~19_combout $end
$var wire 1 2! inst1|score[0][1]~q $end
$var wire 1 3! inst1|score~7_combout $end
$var wire 1 4! inst1|score~8_combout $end
$var wire 1 5! inst1|score[1][0]~q $end
$var wire 1 6! inst1|score~18_combout $end
$var wire 1 7! inst1|score[1][1]~q $end
$var wire 1 8! inst1|score~26_combout $end
$var wire 1 9! inst1|score[1][2]~q $end
$var wire 1 :! inst1|score~35_combout $end
$var wire 1 ;! inst1|score~36_combout $end
$var wire 1 <! inst1|score[1][3]~q $end
$var wire 1 =! inst1|LessThan1~0_combout $end
$var wire 1 >! inst1|score~0_combout $end
$var wire 1 ?! inst1|score~3_combout $end
$var wire 1 @! inst1|score[3][0]~q $end
$var wire 1 A! inst1|score~16_combout $end
$var wire 1 B! inst1|score[3][1]~q $end
$var wire 1 C! inst1|Add3~1_combout $end
$var wire 1 D! inst1|score~24_combout $end
$var wire 1 E! inst1|score[3][2]~q $end
$var wire 1 F! inst1|Add3~0_combout $end
$var wire 1 G! inst1|score~32_combout $end
$var wire 1 H! inst1|score[3][3]~q $end
$var wire 1 I! inst1|LessThan3~0_combout $end
$var wire 1 J! inst1|score~4_combout $end
$var wire 1 K! inst1|score~12_combout $end
$var wire 1 L! inst1|score[4][0]~q $end
$var wire 1 M! inst1|score~29_combout $end
$var wire 1 N! inst1|score[4][2]~q $end
$var wire 1 O! inst1|score~40_combout $end
$var wire 1 P! inst1|score[4][3]~q $end
$var wire 1 Q! inst1|score~21_combout $end
$var wire 1 R! inst1|score[4][1]~q $end
$var wire 1 S! inst1|LessThan4~0_combout $end
$var wire 1 T! inst1|score~37_combout $end
$var wire 1 U! inst1|score~38_combout $end
$var wire 1 V! inst1|score[0][3]~q $end
$var wire 1 W! inst1|score~27_combout $end
$var wire 1 X! inst1|Mux9~0_combout $end
$var wire 1 Y! inst1|Mux9~1_combout $end
$var wire 1 Z! inst1|Mux9~2_combout $end
$var wire 1 [! inst1|index[0]~0_combout $end
$var wire 1 \! inst1|Mux8~1_combout $end
$var wire 1 ]! inst1|Mux8~0_combout $end
$var wire 1 ^! inst1|Mux8~2_combout $end
$var wire 1 _! inst1|Mux11~1_combout $end
$var wire 1 `! inst1|Mux11~0_combout $end
$var wire 1 a! inst1|Mux11~2_combout $end
$var wire 1 b! inst1|Mux10~1_combout $end
$var wire 1 c! inst1|Mux10~0_combout $end
$var wire 1 d! inst1|Mux10~2_combout $end
$var wire 1 e! inst1|segment_num~0_combout $end
$var wire 1 f! inst1|segment_num~1_combout $end
$var wire 1 g! inst1|segment_num~2_combout $end
$var wire 1 h! inst1|segment_num~3_combout $end
$var wire 1 i! inst1|segment_num~4_combout $end
$var wire 1 j! inst1|segment_num~5_combout $end
$var wire 1 k! inst1|segment_num~6_combout $end
$var wire 1 l! inst1|com [7] $end
$var wire 1 m! inst1|com [6] $end
$var wire 1 n! inst1|com [5] $end
$var wire 1 o! inst1|com [4] $end
$var wire 1 p! inst1|com [3] $end
$var wire 1 q! inst1|com [2] $end
$var wire 1 r! inst1|com [1] $end
$var wire 1 s! inst1|com [0] $end
$var wire 1 t! inst1|num_data [6] $end
$var wire 1 u! inst1|num_data [5] $end
$var wire 1 v! inst1|num_data [4] $end
$var wire 1 w! inst1|num_data [3] $end
$var wire 1 x! inst1|num_data [2] $end
$var wire 1 y! inst1|num_data [1] $end
$var wire 1 z! inst1|num_data [0] $end
$var wire 1 {! inst1|num [3] $end
$var wire 1 |! inst1|num [2] $end
$var wire 1 }! inst1|num [1] $end
$var wire 1 ~! inst1|num [0] $end
$var wire 1 !" inst1|state [3] $end
$var wire 1 "" inst1|state [2] $end
$var wire 1 #" inst1|state [1] $end
$var wire 1 $" inst1|state [0] $end
$var wire 1 %" inst1|index [3] $end
$var wire 1 &" inst1|index [2] $end
$var wire 1 '" inst1|index [1] $end
$var wire 1 (" inst1|index [0] $end
$upscope $end
$upscope $end
$enddefinitions $end
#0
$dumpvars
0!
1"
0#
1$
0,
0+
0*
0)
0(
0'
0&
0%
0-
05
04
03
02
01
00
0/
0.
0<
0;
0:
09
08
07
06
0=
0>
0?
0@
1A
xB
1C
1D
1E
1F
0G
0H
0I
0J
0K
0L
0M
0N
0O
0P
0Q
1R
0S
0T
1U
1V
1W
1X
1Y
1Z
1[
0\
1]
0^
0_
0`
0a
0b
0c
0d
0e
0f
0g
0h
0i
0j
0k
0l
0m
0n
0o
0p
0q
0r
0s
0t
0u
0v
0w
0x
0y
0z
0{
0|
0}
0~
0!!
1"!
0#!
0$!
0%!
0&!
0'!
0(!
0)!
0*!
0+!
0,!
0-!
0.!
1/!
00!
01!
02!
03!
04!
05!
06!
07!
08!
09!
0:!
0;!
0<!
0=!
0>!
0?!
0@!
0A!
0B!
0C!
0D!
0E!
0F!
0G!
0H!
0I!
0J!
0K!
0L!
0M!
0N!
0O!
0P!
0Q!
0R!
0S!
0T!
0U!
0V!
0W!
0X!
0Y!
0Z!
0[!
0\!
0]!
0^!
0_!
0`!
0a!
0b!
0c!
0d!
1e!
1f!
1g!
1h!
1i!
1j!
0k!
0s!
0r!
0q!
0p!
0o!
0n!
0m!
0l!
0z!
0y!
0x!
0w!
0v!
0u!
0t!
0~!
0}!
0|!
z{!
0$"
0#"
0""
0!"
0("
0'"
0&"
0%"
$end
#250
1!
1H
1I
10!
1!"
1S
1Q
0/!
11!
0R
#500
0!
0H
0I
#750
1!
1H
1I
12!
00!
1$"
0!"
1y!
1x!
1w!
1v!
1u!
1t!
1s!
1r!
1q!
1p!
1o!
1n!
1m!
1&
1'
1(
1)
1*
1+
1,
16
17
18
19
1:
1;
0S
0Q
1/!
1R
#1000
0!
0H
0I
#1250
1!
1H
1I
10!
1~!
0$"
1!"
1Q
1W!
0/!
1M
0U
1T
01!
0R
#1500
0!
0H
0I
#1750
1!
1H
1I
02!
00!
1\
0!"
1#"
1L
0m!
1l!
1%
0&
1[!
0Q
1/!
0M
1R
#2000
0!
0H
0I
#2250
1!
1H
1I
10!
0~!
1!"
0#"
1}!
0L
0[!
1Q
1S
0/!
0V
1U
1M
11!
0R
#2500
0!
0H
0I
#2750
1!
1H
1I
12!
00!
1$"
0!"
1#"
1L
0n!
1m!
1&
0'
0Q
1c!
1X!
0S
1/!
0M
1`!
1R
#3000
0!
0H
0I
#3250
1!
1H
1I
10!
1~!
0$"
1!"
0#"
0L
1Q
0c!
0`!
0X!
1O
0W!
1T!
0/!
0W
1V
01!
1U!
1P
0R
#3500
0!
0H
0I
#3750
1!
1H
1I
1V!
02!
00!
0\
0!"
1""
1K
0o!
1n!
1'
0(
0Q
1/!
0P
1R
#4000
0!
0H
0I
#4250
1!
1H
1I
10!
1|!
0~!
1!"
0""
1N
0}!
0K
1S
1Q
0T!
13!
0/!
1^
0X
1W
1P
14!
0U!
0R
#4500
0!
0H
0I
#4750
1!
1H
1I
0V!
15!
00!
1$"
0!"
1""
1K
0p!
1o!
1(
0)
0S
0Q
03!
0^
16!
04!
0P
06!
1/!
14!
1R
#5000
0!
0H
0I
#5250
1!
1H
1I
10!
1~!
0$"
1!"
0""
0K
1Q
0/!
1M
1P
0Y
1X
11!
0R
#5500
0!
0H
0I
#5750
1!
1H
1I
12!
00!
0!"
1""
1#"
1L
1K
0q!
1p!
1)
0*
1[!
0Q
1`!
1/!
0M
0P
1a!
1R
#6000
0!
0H
0I
#6250
1!
1H
1I
1("
10!
0~!
1!"
0""
0#"
1}!
0L
0K
0[!
1Q
0`!
1S
1W!
0/!
0a!
1M
0Z
1Y
1P
01!
0j!
0i!
0h!
0e!
0R
#6500
0!
0H
0I
#6750
1!
1H
1I
02!
00!
1\
1$"
0!"
1""
1#"
1L
1K
0y!
0x!
0w!
0t!
0r!
1q!
1*
0+
06
09
0:
0;
0Q
1X!
0S
1/!
0M
0P
1`!
1Z!
1R
1a!
#7000
0!
0H
0I
#7250
1!
1H
1I
1&"
10!
1~!
0$"
1!"
0""
0#"
0L
0K
1Q
0`!
0X!
0O
0/!
0a!
0Z!
1P
0[
1Z
11!
1k!
1j!
1h!
0f!
1e!
0P
0R
#7500
0!
0H
0I
#7750
1!
1H
1I
12!
00!
0!"
1z!
1y!
1w!
0u!
1t!
0s!
1r!
1+
0,
16
07
19
1;
1<
0Q
1/!
1R
#8000
0!
0H
0I
#8250
1!
1H
1I
0("
0&"
10!
0|!
0~!
1!"
0N
0}!
1S
1Q
0W!
1T!
0/!
1[
0T
01!
0k!
1i!
1f!
1U!
0R
#8500
0!
0H
0I
#8750
1!
1H
1I
1V!
02!
00!
0\
1$"
0!"
0z!
1x!
1u!
1s!
0l!
0%
1,
17
1:
0<
0S
0Q
1/!
1R
#9000
0!
0H
0I
#9250
1!
1H
1I
10!
1~!
0$"
1!"
1Q
0T!
13!
0/!
1^
1M
0U
1T
16!
04!
0U!
0R
#9500
0!
0H
0I
#9750
1!
1H
1I
0V!
17!
05!
00!
0!"
1#"
1L
0m!
1l!
1%
0&
1[!
0Q
1c!
03!
0^
14!
0M
1`!
1/!
04!
1R
0`!
#10000
0$
0!
0]
0H
0I
0/!
#10250
1!
1H
1I
0~!
1!"
0#"
1}!
0L
0[!
1Q
0c!
1S
0V
1U
1M
0R
#10500
0!
0H
0I
#10750
1!
1H
1I
1$"
0!"
1#"
1L
0n!
1m!
1&
0'
0Q
0S
0M
1R
#11000
0!
0H
0I
#11250
1!
1H
1I
1~!
0$"
1!"
0#"
0L
1Q
1O
0W
1V
1P
0R
#11500
0!
0H
0I
#11750
1!
1H
1I
0!"
1""
1K
0o!
1n!
1'
0(
0Q
0P
1R
#12000
0!
0H
0I
#12250
1!
1H
1I
1|!
0~!
1!"
0""
1N
0}!
0K
1S
1Q
0X
1W
1P
0R
#12500
0!
0H
0I
#12750
1!
1H
1I
1$"
0!"
1""
1K
0p!
1o!
1(
0)
0S
0Q
0P
1R
#13000
0!
0H
0I
#13250
1!
1H
1I
1~!
0$"
1!"
0""
0K
1Q
1M
1P
0Y
1X
0R
#13500
0!
0H
0I
#13750
1!
1H
1I
0!"
1""
1#"
1L
1K
0q!
1p!
1)
0*
1[!
0Q
1c!
0M
0P
1d!
1R
#14000
0!
0H
0I
#14250
1!
1H
1I
1'"
0~!
1!"
0""
0#"
1}!
0L
0K
0[!
1Q
0c!
1S
0d!
1M
0Z
1Y
1P
1k!
0j!
0g!
0R
#14500
0!
0H
0I
#14750
1!
1H
1I
1$"
0!"
1""
1#"
1L
1K
1z!
0y!
0v!
0r!
1q!
1*
0+
08
0;
1<
0Q
0S
0M
0P
1R
#15000
0!
0H
0I
#15250
1!
1H
1I
0'"
1~!
0$"
1!"
0""
0#"
0L
0K
1Q
0O
1P
0[
1Z
0k!
1j!
1g!
0P
0R
#15500
0!
0H
0I
#15750
1!
1H
1I
0!"
0z!
1y!
1v!
0s!
1r!
1+
0,
18
1;
0<
0Q
1R
#16000
0!
0H
0I
#16250
1!
1H
1I
0|!
0~!
1!"
0N
0}!
1S
1Q
1[
0T
0R
#16500
0!
0H
0I
#16750
1!
1H
1I
1$"
0!"
1s!
0l!
0%
1,
0S
0Q
1R
#17000
0!
0H
0I
#17250
1!
1H
1I
1~!
0$"
1!"
1Q
1M
0U
1T
0R
#17500
0!
0H
0I
#17750
1!
1H
1I
0!"
1#"
1L
0m!
1l!
1%
0&
1[!
0Q
1c!
0M
1R
#18000
0!
0H
0I
#18250
1!
1H
1I
0~!
1!"
0#"
1}!
0L
0[!
1Q
0c!
1S
0V
1U
1M
0R
#18500
0!
0H
0I
#18750
1!
1H
1I
1$"
0!"
1#"
1L
0n!
1m!
1&
0'
0Q
0S
0M
1R
#19000
0!
0H
0I
#19250
1!
1H
1I
1~!
0$"
1!"
0#"
0L
1Q
1O
0W
1V
1P
0R
#19500
0!
0H
0I
#19750
1!
1H
1I
0!"
1""
1K
0o!
1n!
1'
0(
0Q
0P
1R
#20000
0!
0H
0I
#20250
1!
1H
1I
1|!
0~!
1!"
0""
1N
0}!
0K
1S
1Q
0X
1W
1P
0R
#20500
0!
0H
0I
#20750
1!
1H
1I
1$"
0!"
1""
1K
0p!
1o!
1(
0)
0S
0Q
0P
1R
#21000
0!
0H
0I
#21250
1!
1H
1I
1~!
0$"
1!"
0""
0K
1Q
1M
1P
0Y
1X
0R
#21500
0!
0H
0I
#21750
1!
1H
1I
0!"
1""
1#"
1L
1K
0q!
1p!
1)
0*
1[!
0Q
1c!
0M
0P
1d!
1R
#22000
0!
0H
0I
#22250
1!
1H
1I
1'"
0~!
1!"
0""
0#"
1}!
0L
0K
0[!
1Q
0c!
1S
0d!
1M
0Z
1Y
1P
1k!
0j!
0g!
0R
#22500
0!
0H
0I
#22750
1!
1H
1I
1$"
0!"
1""
1#"
1L
1K
1z!
0y!
0v!
0r!
1q!
1*
0+
08
0;
1<
0Q
0S
0M
0P
1R
#23000
0!
0H
0I
#23250
1!
1H
1I
0'"
1~!
0$"
1!"
0""
0#"
0L
0K
1Q
0O
1P
0[
1Z
0k!
1j!
1g!
0P
0R
#23500
0!
0H
0I
#23750
1!
1H
1I
0!"
0z!
1y!
1v!
0s!
1r!
1+
0,
18
1;
0<
0Q
1R
#24000
0!
0H
0I
#24250
1!
1H
1I
0|!
0~!
1!"
0N
0}!
1S
1Q
1[
0T
0R
#24500
0!
0H
0I
#24750
1!
1H
1I
1$"
0!"
1s!
0l!
0%
1,
0S
0Q
1R
#25000
0!
0H
0I
#25250
1!
1H
1I
1~!
0$"
1!"
1Q
1M
0U
1T
0R
#25500
0!
0H
0I
#25750
1!
1H
1I
0!"
1#"
1L
0m!
1l!
1%
0&
1[!
0Q
1c!
0M
1R
#26000
0!
0H
0I
#26250
1!
1H
1I
0~!
1!"
0#"
1}!
0L
0[!
1Q
0c!
1S
0V
1U
1M
0R
#26500
0!
0H
0I
#26750
1!
1H
1I
1$"
0!"
1#"
1L
0n!
1m!
1&
0'
0Q
0S
0M
1R
#27000
0!
0H
0I
#27250
1!
1H
1I
1~!
0$"
1!"
0#"
0L
1Q
1O
0W
1V
1P
0R
#27500
0!
0H
0I
#27750
1!
1H
1I
0!"
1""
1K
0o!
1n!
1'
0(
0Q
0P
1R
#28000
0!
0H
0I
#28250
1!
1H
1I
1|!
0~!
1!"
0""
1N
0}!
0K
1S
1Q
0X
1W
1P
0R
#28500
0!
0H
0I
#28750
1!
1H
1I
1$"
0!"
1""
1K
0p!
1o!
1(
0)
0S
0Q
0P
1R
#29000
0!
0H
0I
#29250
1!
1H
1I
1~!
0$"
1!"
0""
0K
1Q
1M
1P
0Y
1X
0R
#29500
0!
0H
0I
#29750
1!
1H
1I
0!"
1""
1#"
1L
1K
0q!
1p!
1)
0*
1[!
0Q
1c!
0M
0P
1d!
1R
#30000
0!
0H
0I
#30250
1!
1H
1I
1'"
0~!
1!"
0""
0#"
1}!
0L
0K
0[!
1Q
0c!
1S
0d!
1M
0Z
1Y
1P
1k!
0j!
0g!
0R
#30500
0!
0H
0I
#30750
1!
1H
1I
1$"
0!"
1""
1#"
1L
1K
1z!
0y!
0v!
0r!
1q!
1*
0+
08
0;
1<
0Q
0S
0M
0P
1R
#31000
0!
0H
0I
#31250
1!
1H
1I
0'"
1~!
0$"
1!"
0""
0#"
0L
0K
1Q
0O
1P
0[
1Z
0k!
1j!
1g!
0P
0R
#31500
0!
0H
0I
#31750
1!
1H
1I
0!"
0z!
1y!
1v!
0s!
1r!
1+
0,
18
1;
0<
0Q
1R
#32000
0!
0H
0I
#32250
1!
1H
1I
0|!
0~!
1!"
0N
0}!
1S
1Q
1[
0T
0R
#32500
0!
0H
0I
#32750
1!
1H
1I
1$"
0!"
1s!
0l!
0%
1,
0S
0Q
1R
#33000
0!
0H
0I
#33250
1!
1H
1I
1~!
0$"
1!"
1Q
1M
0U
1T
0R
#33500
0!
0H
0I
#33750
1!
1H
1I
0!"
1#"
1L
0m!
1l!
1%
0&
1[!
0Q
1c!
0M
1R
#34000
0!
0H
0I
#34250
1!
1H
1I
0~!
1!"
0#"
1}!
0L
0[!
1Q
0c!
1S
0V
1U
1M
0R
#34500
0!
0H
0I
#34750
1!
1H
1I
1$"
0!"
1#"
1L
0n!
1m!
1&
0'
0Q
0S
0M
1R
#35000
0!
0H
0I
#35250
1!
1H
1I
1~!
0$"
1!"
0#"
0L
1Q
1O
0W
1V
1P
0R
#35500
0!
0H
0I
#35750
1!
1H
1I
0!"
1""
1K
0o!
1n!
1'
0(
0Q
0P
1R
#36000
0!
0H
0I
#36250
1!
1H
1I
1|!
0~!
1!"
0""
1N
0}!
0K
1S
1Q
0X
1W
1P
0R
#36500
0!
0H
0I
#36750
1!
1H
1I
1$"
0!"
1""
1K
0p!
1o!
1(
0)
0S
0Q
0P
1R
#37000
0!
0H
0I
#37250
1!
1H
1I
1~!
0$"
1!"
0""
0K
1Q
1M
1P
0Y
1X
0R
#37500
0!
0H
0I
#37750
1!
1H
1I
0!"
1""
1#"
1L
1K
0q!
1p!
1)
0*
1[!
0Q
1c!
0M
0P
1d!
1R
#38000
0!
0H
0I
#38250
1!
1H
1I
1'"
0~!
1!"
0""
0#"
1}!
0L
0K
0[!
1Q
0c!
1S
0d!
1M
0Z
1Y
1P
1k!
0j!
0g!
0R
#38500
0!
0H
0I
#38750
1!
1H
1I
1$"
0!"
1""
1#"
1L
1K
1z!
0y!
0v!
0r!
1q!
1*
0+
08
0;
1<
0Q
0S
0M
0P
1R
#39000
0!
0H
0I
#39250
1!
1H
1I
0'"
1~!
0$"
1!"
0""
0#"
0L
0K
1Q
0O
1P
0[
1Z
0k!
1j!
1g!
0P
0R
#39500
0!
0H
0I
#39750
1!
1H
1I
0!"
0z!
1y!
1v!
0s!
1r!
1+
0,
18
1;
0<
0Q
1R
#40000
0!
0H
0I
#40250
1!
1H
1I
0|!
0~!
1!"
0N
0}!
1S
1Q
1[
0T
0R
#40500
0!
0H
0I
#40750
1!
1H
1I
1$"
0!"
1s!
0l!
0%
1,
0S
0Q
1R
#41000
0!
0H
0I
#41250
1!
1H
1I
1~!
0$"
1!"
1Q
1M
0U
1T
0R
#41500
0!
0H
0I
#41750
1!
1H
1I
0!"
1#"
1L
0m!
1l!
1%
0&
1[!
0Q
1c!
0M
1R
#42000
0!
0H
0I
#42250
1!
1H
1I
0~!
1!"
0#"
1}!
0L
0[!
1Q
0c!
1S
0V
1U
1M
0R
#42500
0!
0H
0I
#42750
1!
1H
1I
1$"
0!"
1#"
1L
0n!
1m!
1&
0'
0Q
0S
0M
1R
#43000
0!
0H
0I
#43250
1!
1H
1I
1~!
0$"
1!"
0#"
0L
1Q
1O
0W
1V
1P
0R
#43500
0!
0H
0I
#43750
1!
1H
1I
0!"
1""
1K
0o!
1n!
1'
0(
0Q
0P
1R
#44000
0!
0H
0I
#44250
1!
1H
1I
1|!
0~!
1!"
0""
1N
0}!
0K
1S
1Q
0X
1W
1P
0R
#44500
0!
0H
0I
#44750
1!
1H
1I
1$"
0!"
1""
1K
0p!
1o!
1(
0)
0S
0Q
0P
1R
#45000
0!
0H
0I
#45250
1!
1H
1I
1~!
0$"
1!"
0""
0K
1Q
1M
1P
0Y
1X
0R
#45500
0!
0H
0I
#45750
1!
1H
1I
0!"
1""
1#"
1L
1K
0q!
1p!
1)
0*
1[!
0Q
1c!
0M
0P
1d!
1R
#46000
0!
0H
0I
#46250
1!
1H
1I
1'"
0~!
1!"
0""
0#"
1}!
0L
0K
0[!
1Q
0c!
1S
0d!
1M
0Z
1Y
1P
1k!
0j!
0g!
0R
#46500
0!
0H
0I
#46750
1!
1H
1I
1$"
0!"
1""
1#"
1L
1K
1z!
0y!
0v!
0r!
1q!
1*
0+
08
0;
1<
0Q
0S
0M
0P
1R
#47000
0!
0H
0I
#47250
1!
1H
1I
0'"
1~!
0$"
1!"
0""
0#"
0L
0K
1Q
0O
1P
0[
1Z
0k!
1j!
1g!
0P
0R
#47500
0!
0H
0I
#47750
1!
1H
1I
0!"
0z!
1y!
1v!
0s!
1r!
1+
0,
18
1;
0<
0Q
1R
#48000
0!
0H
0I
#48250
1!
1H
1I
0|!
0~!
1!"
0N
0}!
1S
1Q
1[
0T
0R
#48500
0!
0H
0I
#48750
1!
1H
1I
1$"
0!"
1s!
0l!
0%
1,
0S
0Q
1R
#49000
0!
0H
0I
#49250
1!
1H
1I
1~!
0$"
1!"
1Q
1M
0U
1T
0R
#49500
0!
0H
0I
#49750
1!
1H
1I
0!"
1#"
1L
0m!
1l!
1%
0&
1[!
0Q
1c!
0M
1R
#50000
0!
0H
0I
#50250
1!
1H
1I
0~!
1!"
0#"
1}!
0L
0[!
1Q
0c!
1S
0V
1U
1M
0R
#50500
0!
0H
0I
#50750
1!
1H
1I
1$"
0!"
1#"
1L
0n!
1m!
1&
0'
0Q
0S
0M
1R
#51000
0!
0H
0I
#51250
1!
1H
1I
1~!
0$"
1!"
0#"
0L
1Q
1O
0W
1V
1P
0R
#51500
0!
0H
0I
#51750
1!
1H
1I
0!"
1""
1K
0o!
1n!
1'
0(
0Q
0P
1R
#52000
0!
0H
0I
#52250
1!
1H
1I
1|!
0~!
1!"
0""
1N
0}!
0K
1S
1Q
0X
1W
1P
0R
#52500
0!
0H
0I
#52750
1!
1H
1I
1$"
0!"
1""
1K
0p!
1o!
1(
0)
0S
0Q
0P
1R
#53000
0!
0H
0I
#53250
1!
1H
1I
1~!
0$"
1!"
0""
0K
1Q
1M
1P
0Y
1X
0R
#53500
0!
0H
0I
#53750
1!
1H
1I
0!"
1""
1#"
1L
1K
0q!
1p!
1)
0*
1[!
0Q
1c!
0M
0P
1d!
1R
#54000
0!
0H
0I
#54250
1!
1H
1I
1'"
0~!
1!"
0""
0#"
1}!
0L
0K
0[!
1Q
0c!
1S
0d!
1M
0Z
1Y
1P
1k!
0j!
0g!
0R
#54500
0!
0H
0I
#54750
1!
1H
1I
1$"
0!"
1""
1#"
1L
1K
1z!
0y!
0v!
0r!
1q!
1*
0+
08
0;
1<
0Q
0S
0M
0P
1R
#55000
0!
0H
0I
#55250
1!
1H
1I
0'"
1~!
0$"
1!"
0""
0#"
0L
0K
1Q
0O
1P
0[
1Z
0k!
1j!
1g!
0P
0R
#55500
0!
0H
0I
#55750
1!
1H
1I
0!"
0z!
1y!
1v!
0s!
1r!
1+
0,
18
1;
0<
0Q
1R
#56000
0!
0H
0I
#56250
1!
1H
1I
0|!
0~!
1!"
0N
0}!
1S
1Q
1[
0T
0R
#56500
0!
0H
0I
#56750
1!
1H
1I
1$"
0!"
1s!
0l!
0%
1,
0S
0Q
1R
#57000
0!
0H
0I
#57250
1!
1H
1I
1~!
0$"
1!"
1Q
1M
0U
1T
0R
#57500
0!
0H
0I
#57750
1!
1H
1I
0!"
1#"
1L
0m!
1l!
1%
0&
1[!
0Q
1c!
0M
1R
#58000
0!
0H
0I
#58250
1!
1H
1I
0~!
1!"
0#"
1}!
0L
0[!
1Q
0c!
1S
0V
1U
1M
0R
#58500
0!
0H
0I
#58750
1!
1H
1I
1$"
0!"
1#"
1L
0n!
1m!
1&
0'
0Q
0S
0M
1R
#59000
0!
0H
0I
#59250
1!
1H
1I
1~!
0$"
1!"
0#"
0L
1Q
1O
0W
1V
1P
0R
#59500
0!
0H
0I
#59750
1!
1H
1I
0!"
1""
1K
0o!
1n!
1'
0(
0Q
0P
1R
#60000
0!
0H
0I
#60250
1!
1H
1I
1|!
0~!
1!"
0""
1N
0}!
0K
1S
1Q
0X
1W
1P
0R
#60500
0!
0H
0I
#60750
1!
1H
1I
1$"
0!"
1""
1K
0p!
1o!
1(
0)
0S
0Q
0P
1R
#61000
0!
0H
0I
#61250
1!
1H
1I
1~!
0$"
1!"
0""
0K
1Q
1M
1P
0Y
1X
0R
#61500
0!
0H
0I
#61750
1!
1H
1I
0!"
1""
1#"
1L
1K
0q!
1p!
1)
0*
1[!
0Q
1c!
0M
0P
1d!
1R
#62000
0!
0H
0I
#62250
1!
1H
1I
1'"
0~!
1!"
0""
0#"
1}!
0L
0K
0[!
1Q
0c!
1S
0d!
1M
0Z
1Y
1P
1k!
0j!
0g!
0R
#62500
0!
0H
0I
#62750
1!
1H
1I
1$"
0!"
1""
1#"
1L
1K
1z!
0y!
0v!
0r!
1q!
1*
0+
08
0;
1<
0Q
0S
0M
0P
1R
#63000
0!
0H
0I
#63250
1!
1H
1I
0'"
1~!
0$"
1!"
0""
0#"
0L
0K
1Q
0O
1P
0[
1Z
0k!
1j!
1g!
0P
0R
#63500
0!
0H
0I
#63750
1!
1H
1I
0!"
0z!
1y!
1v!
0s!
1r!
1+
0,
18
1;
0<
0Q
1R
#64000
0!
0H
0I
#64250
1!
1H
1I
0|!
0~!
1!"
0N
0}!
1S
1Q
1[
0T
0R
#64500
0!
0H
0I
#64750
1!
1H
1I
1$"
0!"
1s!
0l!
0%
1,
0S
0Q
1R
#65000
0!
0H
0I
#65250
1!
1H
1I
1~!
0$"
1!"
1Q
1M
0U
1T
0R
#65500
0!
0H
0I
